<?xml version="1.0" standalone="no"?>
<!DOCTYPE svg PUBLIC "-//W3C//DTD SVG 1.1//EN" "http://www.w3.org/Graphics/SVG/1.1/DTD/svg11.dtd">
<svg xmlns="http://www.w3.org/2000/svg">
<metadata>Copyright (C) 2016 by original authors @ fontello.com</metadata>
<defs>
<font id="fontello" horiz-adv-x="1000" >
<font-face font-family="fontello" font-weight="400" font-stretch="normal" units-per-em="1000" ascent="850" descent="-150" />
<missing-glyph horiz-adv-x="1000" />
<glyph glyph-name="glyph" unicode="&#xe800;" d="M458 967q52 0 89-37t36-88-36-89-89-36-88 36-37 89 37 88 88 37z m0-334q52 0 89-36t36-89-36-88-89-37-88 37-37 88 37 89 88 36z m0-333q52 0 89-37t36-88-36-88-89-37-88 37-37 88 37 88 88 37z" horiz-adv-x="1000" />
</font>
</defs>
</svg>